lab3/test_run_dir/PwmSpec_should_pass/my_pwm.vcd
$date
2022-10-29T07:54+0000
$end
$version
0.2
$end
$comment

$end
$timescale 1ns  $end
$scope module my_pwm $end
 $var wire 1 ! io_dout $end
 $var wire 4 " io_dout_cntReg $end
 $var wire 1 # clock $end
 $var wire 32 $ io_in $end
 $var wire 1 % reset $end
$upscope $end
$enddefinitions $end
$dumpvars
0%
0#
b00000000000000000000000000000000 $
b0000 "
0!
$end
#0
1%
#1
1#
#6
1!
0%
0#
b00000000000000000000000000000011 $
#11
b0001 "
1#
#16
0#
#21
b0010 "
1#
#26
0#
#31
0!
b0011 "
1#
#36
0#
#41
b0100 "
1#
#46
0#
#51
b0101 "
1#
#56
0#
#61
b0110 "
1#
#66
0#
#71
b0111 "
1#
#76
0#
#81
b1000 "
1#
#86
0#
#91
b1001 "
1#
#96
0#
#101
1!
b0000 "
1#
#106
0#
#111
b0001 "
1#
#116
0#
#121
b0010 "
1#
#126
0#
#131
0!
b0011 "
1#
#136
0#
#141
b0100 "
1#
#146
0#
#151
b0101 "
1#
#156
0#
#161
b0110 "
1#
#166
0#
#171
b0111 "
1#
#176
0#
#181
b1000 "
1#
#186
0#
#191
b1001 "
1#
#196
0#
#201
1!
b0000 "
1#
#206
0#
#211
b0001 "
1#
#216
0#
#221
b0010 "
1#
#226
0#
#231
0!
b0011 "
1#
#236
0#
#241
b0100 "
1#
#246
0#
#251
b0101 "
1#
#256
0#
#261
b0110 "
1#
#266
0#
#271
b0111 "
1#
#276
0#
#281
b1000 "
1#
#286
0#
#291
b1001 "
1#
#296
0#
#301
1!
b0000 "
1#
#306
0#
#311
b0001 "
1#
#316
0#
#321
b0010 "
1#
#326
0#
#331
0!
b0011 "
1#
#336
0#
#341
b0100 "
1#
#346
0#
#351
b0101 "
1#
#356
0#
#361
b0110 "
1#
#366
0#
#371
b0111 "
1#
#376
0#
#381
b1000 "
1#
#386
0#
#391
b1001 "
1#
#396
0#
#401
1!
b0000 "
1#
#406
0#
#411
b0001 "
1#
#416
0#
#421
b0010 "
1#
#426
0#
#431
0!
b0011 "
1#
#436
0#
#441
b0100 "
1#
#446
0#
#451
b0101 "
1#
#456
0#
#461
b0110 "
1#
#466
0#
#471
b0111 "
1#
#476
0#
#481
b1000 "
1#
#486
0#
#491
b1001 "
1#
#496
0#
#501
1!
b0000 "
1#
#506
0#
#511
b0001 "
1#
#516
0#
#521
b0010 "
1#
#526
0#
#531
0!
b0011 "
1#
#536
0#
#541
b0100 "
1#
#546
0#
#551
b0101 "
1#
#556
0#
#561
b0110 "
1#
#566
0#
#571
b0111 "
1#
#576
0#
#581
b1000 "
1#
#586
0#
#591
b1001 "
1#
#596
0#
#601
1!
b0000 "
1#
#606
0#
#611
b0001 "
1#
#616
0#
#621
b0010 "
1#
#626
0#
#631
0!
b0011 "
1#
#636
0#
#641
b0100 "
1#
#646
0#
#651
b0101 "
1#
#656
0#
#661
b0110 "
1#
#666
0#
#671
b0111 "
1#
#676
0#
#681
b1000 "
1#
#686
0#
#691
b1001 "
1#
#696
0#
#701
1!
b0000 "
1#
#706
0#
#711
b0001 "
1#
#716
0#
#721
b0010 "
1#
#726
0#
#731
0!
b0011 "
1#
#736
0#
#741
b0100 "
1#
#746
0#
#751
b0101 "
1#
#756
0#
#761
b0110 "
1#
#766
0#
#771
b0111 "
1#
#776
0#
#781
b1000 "
1#
#786
0#
#791
b1001 "
1#
#796
0#
#801
1!
b0000 "
1#
#806
0#
#811
b0001 "
1#
#816
0#
#821
b0010 "
1#
#826
0#
#831
0!
b0011 "
1#
#836
0#
#841
b0100 "
1#
#846
0#
#851
b0101 "
1#
#856
0#
#861
b0110 "
1#
#866
0#
#871
b0111 "
1#
#876
0#
#881
b1000 "
1#
#886
0#
#891
b1001 "
1#
#896
0#
#901
1!
b0000 "
1#
#906
0#
#911
b0001 "
1#
#916
0#
#921
b0010 "
1#
#926
0#
#931
0!
b0011 "
1#
#936
0#
#941
b0100 "
1#
#946
0#
#951
b0101 "
1#
#956
0#
#961
b0110 "
1#
#966
0#
#971
b0111 "
1#
#976
0#
#981
b1000 "
1#
#986
0#
#991
b1001 "
1#
#996
0#
#1001
1!
b0000 "
1#
#1006
0#
b00000000000000000000000000000000 $
